%YAML 1.1
%TAG !u! tag:unity3d.com,2011:
--- !u!1045 &1
EditorBuildSettings:
  m_ObjectHideFlags: 0
  serializedVersion: 2
  m_Scenes:
  - enabled: 1
    path: Assets/Scenes/StartMenu.unity
    guid: ae8fc16412c6244ed89a148cc8721dc5
  - enabled: 1
    path: Assets/Scenes/Tavern.unity
    guid: 381c76500841c4e979ad46a7d0caae74
  - enabled: 1
    path: Assets/Scenes/Score.unity
    guid: 18dd42a4e88824d23b3c39c5ac7254fd
  m_configObjects: {}
