%YAML 1.1
%TAG !u! tag:unity3d.com,2011:
--- !u!1001 &7743736236289110025
PrefabInstance:
  m_ObjectHideFlags: 0
  serializedVersion: 2
  m_Modification:
    m_TransformParent: {fileID: 0}
    m_Modifications:
    - target: {fileID: 3065569634032023451, guid: e0ad12728167a43568a0dca037125d33, type: 3}
      propertyPath: beerTypeRequest
      value: 2
      objectReference: {fileID: 0}
    - target: {fileID: 7020421345078163127, guid: e0ad12728167a43568a0dca037125d33, type: 3}
      propertyPath: m_Name
      value: ClientMale Variant W
      objectReference: {fileID: 0}
    - target: {fileID: 7177172741610299533, guid: e0ad12728167a43568a0dca037125d33, type: 3}
      propertyPath: m_Sprite
      value: 
      objectReference: {fileID: 21300000, guid: 3c3d2f69983994a43b66b911ca7344c8, type: 3}
    - target: {fileID: 7648902897589316621, guid: e0ad12728167a43568a0dca037125d33, type: 3}
      propertyPath: m_RootOrder
      value: 0
      objectReference: {fileID: 0}
    - target: {fileID: 7648902897589316621, guid: e0ad12728167a43568a0dca037125d33, type: 3}
      propertyPath: m_LocalPosition.x
      value: -1.796
      objectReference: {fileID: 0}
    - target: {fileID: 7648902897589316621, guid: e0ad12728167a43568a0dca037125d33, type: 3}
      propertyPath: m_LocalPosition.y
      value: 0
      objectReference: {fileID: 0}
    - target: {fileID: 7648902897589316621, guid: e0ad12728167a43568a0dca037125d33, type: 3}
      propertyPath: m_LocalPosition.z
      value: 0
      objectReference: {fileID: 0}
    - target: {fileID: 7648902897589316621, guid: e0ad12728167a43568a0dca037125d33, type: 3}
      propertyPath: m_LocalRotation.w
      value: 0.7071068
      objectReference: {fileID: 0}
    - target: {fileID: 7648902897589316621, guid: e0ad12728167a43568a0dca037125d33, type: 3}
      propertyPath: m_LocalRotation.x
      value: 0
      objectReference: {fileID: 0}
    - target: {fileID: 7648902897589316621, guid: e0ad12728167a43568a0dca037125d33, type: 3}
      propertyPath: m_LocalRotation.y
      value: -0.7071068
      objectReference: {fileID: 0}
    - target: {fileID: 7648902897589316621, guid: e0ad12728167a43568a0dca037125d33, type: 3}
      propertyPath: m_LocalRotation.z
      value: 0
      objectReference: {fileID: 0}
    - target: {fileID: 7648902897589316621, guid: e0ad12728167a43568a0dca037125d33, type: 3}
      propertyPath: m_LocalEulerAnglesHint.x
      value: 0
      objectReference: {fileID: 0}
    - target: {fileID: 7648902897589316621, guid: e0ad12728167a43568a0dca037125d33, type: 3}
      propertyPath: m_LocalEulerAnglesHint.y
      value: -90
      objectReference: {fileID: 0}
    - target: {fileID: 7648902897589316621, guid: e0ad12728167a43568a0dca037125d33, type: 3}
      propertyPath: m_LocalEulerAnglesHint.z
      value: 0
      objectReference: {fileID: 0}
    m_RemovedComponents: []
  m_SourcePrefab: {fileID: 100100000, guid: e0ad12728167a43568a0dca037125d33, type: 3}
